module gitlab.com/teenapawar/mysql-crudProject-golang

go 1.20

require (
	github.com/gorilla/mux v1.8.0
	github.com/jinzhu/gorm v1.9.16
)

require (
	github.com/go-sql-driver/mysql v1.5.0 // indirect
	github.com/jinzhu/inflection v1.0.0 // indirect
)
